(-0.0046000318+5.6334143e-19j)
(-0.0044509973+5.4508995e-19j)
(-0.0037493748+4.5916605e-19j)
(-0.0025400505+3.110665e-19j)
(-0.0009312022+1.1403938e-19j)
(0.0009142297-1.1196086e-19j)
(0.0027940464-3.4217202e-19j)
(0.004487938-5.496139e-19j)
(0.005782211-7.081167e-19j)
(0.00649549-7.954682e-19j)
(0.0065025026-7.9632693e-19j)
(0.0057530617-7.045469e-19j)
(0.0042837407-5.24607e-19j)
(0.0022203508-2.7191456e-19j)
(-0.00022975319+2.8136652e-20j)
(-0.0027954099+3.4233898e-19j)
(-0.009768233+1.1962635e-18j)
(-0.01148647+1.4066868e-18j)
(-0.011865967+1.4531618e-18j)
(-0.010738651+1.3151056e-18j)
(-0.008098369+9.917643e-19j)
(-0.0041147326+5.0390943e-19j)
(0.00087186584-1.0677278e-19j)
(0.006374926-7.8070325e-19j)
(0.011805051-1.4457017e-18j)
(0.016528377-2.0241426e-18j)
(0.019935066-2.4413417e-18j)
(0.021511158-2.6343573e-18j)
(0.02090635-2.5602896e-18j)
(0.017989937-2.2031319e-18j)
(0.012887976-1.5783218e-18j)
(0.0059960643-7.343061e-19j)
(-0.0066358303+8.126548e-19j)
(-0.014798132+1.8122483e-18j)
(-0.021687139+2.6559086e-18j)
(-0.026300695+3.2209063e-18j)
(-0.027760547+3.399686e-18j)
(-0.025416618+3.1126383e-18j)
(-0.018939046+2.3193644e-18j)
(-0.008388398+1.0272825e-18j)
(0.005743787-7.034112e-19j)
(0.022529889-2.7591157e-18j)
(0.040639132-4.976859e-18j)
(0.058407918-7.152907e-18j)
(0.07394339-9.055454e-18j)
(0.085253075-1.0440492e-17j)
(0.0903906-1.1069656e-17j)
(0.08760586-1.07286235e-17j)
(0.070887186-8.681176e-18j)
(0.048632562-5.9557707e-18j)
(0.016246043-1.9895667e-18j)
(-0.02611309+3.1979315e-18j)
(-0.07773752+9.520101e-18j)
(-0.13740139+1.6826819e-17j)
(-0.20342603+2.4912505e-17j)
(-0.273777+3.3528016e-17j)
(-0.3461855+4.2395498e-17j)
(-0.41828424+5.1225042e-17j)
(-0.48774886+5.973201e-17j)
(-0.5524334+6.765358e-17j)
(-0.6104902+7.476349e-17j)
(-0.6604679+8.088399e-17j)
(-0.70137805+8.5894044e-17j)
(-0.7327298+8.9733526e-17j)
(-0.74993014+9.240331e-17j)
(-0.7628012+9.396129e-17j)
(-0.7680238+9.451497e-17j)
(-0.766754+9.4211345e-17j)
(-0.76030874+9.322501e-17j)
(-0.7500711+9.174526e-17j)
(-0.73740214+8.9963555e-17j)
(-0.72356695+8.8061794e-17j)
(-0.7096792+8.620252e-17j)
(-0.6966638+8.452124e-17j)
(-0.6852409+8.312148e-17j)
(-0.67592424+8.2072305e-17j)
(-0.6690347+8.1408515e-17j)
(-0.664721+8.113293e-17j)
(-0.6629853+8.1220434e-17j)
(-0.66370827+8.1623165e-17j)
(-0.66207075+8.227656e-17j)
(-0.6671204+8.310538e-17j)
(-0.67428803+8.402963e-17j)
(-0.6830936+8.4969945e-17j)
(-0.6929374+8.5852116e-17j)
(-0.7031165+8.6610846e-17j)
(-0.7128537+8.719263e-17j)
(-0.7213395+8.755791e-17j)
(-0.7277861+8.7682396e-17j)
(-0.731493+8.755791e-17j)
(-0.73191696+8.719263e-17j)
(-0.72874236+8.6610846e-17j)
(-0.72194207+8.5852116e-17j)
(-0.7118222+8.496995e-17j)
(-0.69904196+8.402964e-17j)
(-0.6846029+8.3105374e-17j)
(-0.6652033+8.227655e-17j)
(-0.65170556+8.162317e-17j)
(-0.641528+8.122043e-17j)
(-0.63619995+8.113293e-17j)
(-0.63699037+8.1408515e-17j)
(-0.6447546+8.2072305e-17j)
(-0.6597993+8.312148e-17j)
(-0.68178+8.452125e-17j)
(-0.70964074+8.6202517e-17j)
(-0.741609+8.8061794e-17j)
(-0.7752472+8.996355e-17j)
(-0.8075648+9.174527e-17j)
(-0.8351833+9.322501e-17j)
(-0.8545471+9.4211345e-17j)
(-0.86216384+9.451497e-17j)
(-0.85485786+9.396129e-17j)
(-0.8254174+9.240331e-17j)
(-0.78136235+8.9733526e-17j)
(-0.7176241+8.5894044e-17j)
(-0.6343548+8.0884e-17j)
(-0.53275275+7.476349e-17j)
(-0.41503197+6.765358e-17j)
(-0.28432292+5.9732016e-17j)
(-0.1445072+5.122505e-17j)
(-8.889661e-09+4.2395495e-17j)
(0.14450723+3.3528016e-17j)
(0.28432292+2.4912505e-17j)
(0.41503197+1.6826819e-17j)
(0.53275275+9.520101e-18j)
(0.6343548+3.1979315e-18j)
(0.71762407-1.9895664e-18j)
(0.7813624-5.9557715e-18j)
(0.82541734-8.681176e-18j)
(0.8504069-1.0183534e-17j)
(0.8584145-1.061049e-17j)
(0.85200703-1.01294255e-17j)
(0.8342521-8.941415e-18j)
(0.808479-7.264868e-18j)
(0.77804124-5.319031e-18j)
(0.7460969-3.3087295e-18j)
(0.7154229-1.4115279e-18j)
(0.6882754+2.3181445e-19j)
(0.66630185+1.5230375e-18j)
(0.6505077+2.4080915e-18j)
(0.6412742+2.8750792e-18j)
(0.6384203+2.9489915e-18j)
(0.6412982+2.6840456e-18j)
(0.64891016+2.1545873e-18j)
(0.6692351+8.822355e-19j)
(0.6820184+1.2729079e-19j)
(0.6946747-5.843259e-19j)
(0.70616364-1.1990928e-18j)
(0.715706-1.6825648e-18j)
(0.7227991-2.018487e-18j)
(0.72720075-2.2059424e-18j)
(0.728892-2.2552318e-18j)
(0.72802675-2.1832868e-18j)
(0.7248769-2.0093776e-18j)
(0.7197838-1.7517874e-18j)
(0.71312153-1.425901e-18j)
(0.7052762-1.0439183e-18j)
(0.6966429-6.1611183e-19j)
(0.68763554-1.532966e-19j)
(0.67870724+3.300417e-19j)
(0.67037135+8.126548e-19j)
(0.6629811+1.2929904e-18j)
(0.6575314+1.6900496e-18j)
(0.6548175+1.9449525e-18j)
(0.65560853+1.9973544e-18j)
(0.66056556+1.7922212e-18j)
(0.6701461+1.287638e-18j)
(0.68450147+4.6290376e-19j)
(0.70337725-6.7394277e-19j)
(0.7260311-2.0800553e-18j)
(0.7511762-3.674016e-18j)
(0.7769628-5.3350577e-18j)
(0.8010069-6.9057322e-18j)
(0.8204679-8.198208e-18j)
(0.8321789-9.004032e-18j)
(0.83282405-9.106888e-18j)
(0.8283527-8.860909e-18j)
(0.79688764-6.906423e-18j)
(0.74476516-3.6514792e-18j)
(0.670559+9.810642e-19j)
(0.5739394+6.99814e-18j)
(0.45580733+1.4330052e-17j)
(0.31835663+2.2828537e-17j)
(0.16505799+3.2269642e-17j)
(0.00055811263+4.2361325e-17j)
(-0.16950123+5.275549e-17j)
(-0.33873603+6.306386e-17j)
(-0.5003316+7.2876677e-17j)
(-0.6473943+8.178326e-17j)
(-0.7733218+8.939326e-17j)
(-0.87216985+9.5357235e-17j)
(-0.9389912+9.9385506e-17j)
(-0.97012705+1.0126421e-16j)
(-0.9631974+1.00867714e-16j)
(-0.91804755+9.816644e-17j)
(-0.83598495+9.323028e-17j)
(-0.7199638+8.622687e-17j)
(-0.57445157+7.741522e-17j)
(-0.40522295+6.713501e-17j)
(-0.21909368+5.5792154e-17j)
(-0.023610093+4.3841198e-17j)
(0.17328703+3.176576e-17j)
(0.3636091+2.0057621e-17j)
(0.5396587+9.19563e-18j)
(0.6943478-3.7474945e-19j)
(0.8214825-8.260335e-18j)
(0.91600364-1.413681e-17j)
(0.9741783-1.7762337e-17j)
(0.98453516-1.8424322e-17j)
(0.9652761-1.7217247e-17j)
(0.9085048-1.3677644e-17j)
(0.81640244-7.9492686e-18j)
(0.6924855-2.6071004e-19j)
(0.5414872+9.08367e-18j)
(0.3691972+1.971545e-17j)
(0.18226291+3.1216145e-17j)
(-0.012045685+4.313308e-17j)
(-0.20610267+5.499668e-17j)
(-0.39221793+6.633869e-17j)
(-0.5629454+7.671067e-17j)
(-0.7113963+8.570226e-17j)
(-0.8315444+9.2958365e-17j)
(-0.91850716+9.819458e-17j)
(-0.96878815+1.01210054e-16j)
(-0.9804635+1.0189714e-16j)
(-0.95306206+1.00247104e-16j)
(-0.888403+9.635123e-17j)
(-0.789719+9.039731e-17j)
(-0.6617287+8.266099e-17j)
(-0.51038957+7.349254e-17j)
(-0.34258038+6.329926e-17j)
(-0.16572723+5.2524397e-17j)
(0.012603774+4.162374e-17j)
(0.18512377+3.1040968e-17j)
(0.34522176+2.1183523e-17j)
(0.4873235+1.2400241e-17j)
(0.60718465+4.962457e-18j)
(0.70209813-9.501532e-19j)
(0.7710007-5.257938e-18j)
(0.81447065-7.983068e-18j)
(0.82541734-8.681176e-18j)
(0.8262007-8.701326e-18j)
(0.8125366-7.801285e-18j)
(0.7893438-6.292407e-18j)
(0.7616826-4.4978095e-18j)
(0.7343591-2.7263288e-18j)
(0.7115542-1.2478793e-18j)
(0.6965045-2.7206932e-19j)
(0.69125473+6.834792e-20j)
(0.6965045-2.7206932e-19j)
(0.7115543-1.2478792e-18j)
(0.7343591-2.726329e-18j)
(0.76168257-4.49781e-18j)
(0.7893438-6.2924063e-18j)
(0.8125366-7.801285e-18j)
(0.82620066-8.701326e-18j)
(0.82541734-8.681176e-18j)
(0.80556864-7.4379775e-18j)
(0.76350194-4.7987717e-18j)
(0.6970181-6.3908667e-19j)
(0.60532224+5.0764963e-18j)
(0.48915192+1.228828e-17j)
(0.35080984+2.0841352e-17j)
(0.19409966+3.0491353e-17j)
(0.024168195+4.0915622e-17j)
(-0.15273628+5.1728927e-17j)
(-0.32957536+6.250293e-17j)
(-0.4988834+7.2787996e-17j)
(-0.6531611+8.213638e-17j)
(-0.7852783+9.0125384e-17j)
(-0.8888625+9.637936e-17j)
(-0.9586529+1.00589444e-16j)
(-0.9907999+1.02530056e-16j)
(-0.98285913+1.0207166e-16j)
(-0.9347403+9.918857e-17j)
(-0.8479416+9.39624e-17j)
(-0.7257307+8.657998e-17j)
(-0.5730034+7.732654e-17j)
(-0.3960623+6.657409e-17j)
(-0.20232871+5.476559e-17j)
(-3.86507e-10+4.2395498e-17j)
(0.20232868+2.998747e-17j)
(0.39606234+1.8070435e-17j)
(0.5730034+7.153859e-18j)
(0.7257306-2.2963928e-18j)
(0.8479416-9.8804855e-18j)
(0.93474036-1.5284102e-17j)
(0.98285913-1.8293892e-17j)
(1-1.9371271e-17j)
(0.96755487-1.7356775e-17j)
(0.8963612-1.2934064e-17j)
(0.79035836-6.354534e-18j)
(0.6550236+2.0331725e-18j)
(0.49705502+1.18043595e-17j)
(0.32398728+2.2483758e-17j)
(0.14376038+3.3573746e-17j)
(-0.035732634+4.458349e-17j)
(-0.20709066+5.5057178e-17j)
(-0.3638148+6.45995e-17j)
(-0.5006581+7.289667e-17j)
(-0.61388975+7.97317e-17j)
(-0.70145875+8.499292e-17j)
(-0.7630424+8.8675105e-17j)
(-0.7999778+9.08734e-17j)
(-0.82428104+9.2333725e-17j)
(-0.8210317+9.216258e-17j)
(-0.80380213+9.117092e-17j)
(-0.7780267+8.9681354e-17j)
(-0.7492106+8.8017715e-17j)
(-0.7224727+8.6478894e-17j)
(-0.70212185+8.5314826e-17j)
(-0.6913026+8.4706603e-17j)
(-0.691736+8.475212e-17j)
(-0.7035793+8.545834e-17j)
(-0.72541445+8.6741084e-17j)
(-0.7543692+8.8431993e-17j)
(-0.78636026+9.029248e-17j)
(-0.8164423+9.203363e-17j)
(-0.83923155+9.334035e-17j)
(-0.8493744+9.389807e-17j)
(-0.85121864+9.398318e-17j)
(-0.82191825+9.2216854e-17j)
(-0.7675915+8.895366e-17j)
(-0.68737125+8.4130317e-17j)
(-0.5821946+7.779094e-17j)
(-0.45477766+7.00873e-17j)
(-0.30944428+6.1270254e-17j)
(-0.15182318+5.167302e-17j)
(0.011564432+4.168738e-17j)
(0.17379004+3.1734963e-17j)
(0.32803735+2.2235763e-17j)
(0.46811223+1.357659e-17j)
(0.5888998+6.082086e-18j)
(0.6867319-9.239639e-21j)
(0.7596332-4.561884e-18j)
(0.8074254-7.551674e-18j)
(0.8316822-9.064786e-18j)
(0.8353036-9.258714e-18j)
(0.82299846-8.4418836e-18j)
(0.8000451-6.947671e-18j)
(0.77202594-5.1311606e-18j)
(0.7443112-3.335722e-18j)
(0.72157-1.8611675e-18j)
(0.7073533-9.363649e-19j)
(0.70378166-6.9870566e-19j)
(0.7113684-1.1822192e-18j)
(0.72898704-2.3153226e-18j)
(0.75398886-3.928308e-18j)
(0.78245586-5.7698073e-18j)
(0.80956584-7.5306515e-18j)
(0.83003765-8.872913e-18j)
(0.83861464-9.4614656e-18j)
(0.8305459-8.9952045e-18j)
(0.8022564-7.235167e-18j)
(0.7508988-4.0270544e-18j)
(0.67541474+6.8373297e-19j)
(0.57642776+6.8457724e-18j)
(0.45622584+1.4304423e-17j)
(0.31860492+2.2813334e-17j)
(0.16858813+3.2053487e-17j)
(0.012045685+4.1657914e-17j)
(-0.14474836+5.1239812e-17j)
(-0.29558417+6.0421567e-17j)
(-0.43476754+6.886203e-17j)
(-0.557517+7.627986e-17j)
(-0.6602728+8.2471006e-17j)
(-0.7408965+8.731907e-17j)
(-0.7987445+9.0797875e-17j)
(-0.82541734+9.240331e-17j)
(-0.8419269+9.3442034e-17j)
(-0.84264076+9.3549105e-17j)
(-0.83116907+9.2935396e-17j)
(-0.8113503+9.182267e-17j)
(-0.786915+9.042485e-17j)
(-0.7611919+8.893183e-17j)
(-0.73687994+8.749741e-17j)
(-0.71590424+8.623199e-17j)
(-0.6993654+8.5200305e-17j)
(-0.6875789+8.442432e-17j)
(-0.6801954+8.3890156e-17j)
(-0.67638177+8.355823e-17j)
(-0.6750395+8.337521e-17j)
(-0.67503244+8.328605e-17j)
(-0.67539513+8.324491e-17j)
(-0.6662999+8.2660165e-17j)
(-0.6664931+8.269982e-17j)
(-0.6675337+8.2826885e-17j)
(-0.6699595+8.306415e-17j)
(-0.67451936+8.3444193e-17j)
(-0.68202376+8.400212e-17j)
(-0.693167+8.47665e-17j)
(-0.7083413+8.574992e-17j)
(-0.7274686+8.6940104e-17j)
(-0.7498709+8.829288e-17j)
(-0.7741969+8.9728146e-17j)
(-0.79842114+9.1129396e-17j)
(-0.81991774+9.2347284e-17j)
(-0.83560985+9.3207314e-17j)
(-0.84218127+9.3520974e-17j)
(-0.83633596+9.309969e-17j)
(-0.81508106+9.177038e-17j)
(-0.7757715+8.9391185e-17j)
(-0.71716464+8.58659e-17j)
(-0.6387955+8.115591e-17j)
(-0.5413202+7.52881e-17j)
(-0.42653808+6.8358126e-17j)
(-0.2973279+6.052834e-17j)
(-0.15749818+5.202052e-17j)
(-0.011564422+4.310361e-17j)
(0.13553135+3.4077628e-17j)
(0.2787348+2.5254676e-17j)
(0.41320357+1.693878e-17j)
(0.53461516+9.406062e-18j)
(0.6394349+2.8868649e-18j)
(0.7251228-2.4487325e-18j)
(0.79026437-6.500861e-18j)
(0.82541734-8.681176e-18j)
(0.8504069-1.0183534e-17j)
(0.8584145-1.061049e-17j)
(0.85200703-1.01294255e-17j)
(0.8342521-8.941415e-18j)
(0.808479-7.264868e-18j)
(0.77804124-5.319031e-18j)
(0.7460969-3.3087295e-18j)
(0.7154229-1.4115279e-18j)
(0.6882754+2.3181445e-19j)
(0.66630185+1.5230375e-18j)
(0.6505077+2.4080915e-18j)
(0.6412742+2.8750792e-18j)
(0.6384203+2.9489915e-18j)
(0.6412982+2.6840456e-18j)
(0.64891016+2.1545873e-18j)
(0.660035+1.4455769e-18j)
(0.67311645+6.7238074e-19j)
(0.687176-1.2515988e-19j)
(0.70108354-8.880264e-19j)
(0.71384364-1.5685254e-18j)
(0.72462755-2.130448e-18j)
(0.7327888-2.5481144e-18j)
(0.7378679-2.8048458e-18j)
(0.7395911-2.8914034e-18j)
(0.7378679-2.8048456e-18j)
(0.7327888-2.5481142e-18j)
(0.7246277-2.130448e-18j)
(0.7138437-1.5685252e-18j)
(0.70108354-8.880264e-19j)
(0.68717605-1.2515995e-19j)
(0.67311645+6.723807e-19j)
(0.6692351+8.822355e-19j)
(0.6578121+1.6094974e-18j)
(0.648797+2.2248795e-18j)
(0.6435004+2.6379253e-18j)
(0.6431365+2.7610398e-18j)
(0.6486792+2.5200523e-18j)
(0.66071373+1.8652094e-18j)
(0.6792996+7.8142837e-19j)
(0.70385855-7.034112e-19j)
(0.73310596-2.5132613e-18j)
(0.7650363-4.5227043e-18j)
(0.79697293-6.5603206e-18j)
(0.82568455-8.4168076e-18j)
(0.84756637-9.857511e-18j)
(0.8588739-1.0638626e-17j)
(0.85599774-1.05258725e-17j)
(0.8357539-9.314099e-18j)
(0.79543334-6.8173683e-18j)
(0.7338573-2.9835623e-18j)
(0.650752+2.1938923e-18j)
(0.54708713+8.6423764e-18j)
(0.42508993+1.6210948e-17j)
(0.28816727+2.4677106e-17j)
(0.14073323+3.3759104e-17j)
(-0.012045669+4.313308e-17j)
(-0.16457301+5.245372e-17j)
(-0.311188+6.1377026e-17j)
(-0.4465482+6.958339e-17j)
(-0.5659979+7.6799174e-17j)
(-0.665894+8.2815205e-17j)
(-0.7438596+8.75005e-17j)
(-0.79894537+9.081017e-17j)
(-0.8408823+9.3350264e-17j)
(-0.85268563+9.4100814e-17j)
(-0.84627086+9.377139e-17j)
(-0.825963+9.2616614e-17j)
(-0.7967902+9.0931124e-17j)
(-0.76404685+8.902457e-17j)
(-0.73283136+8.7195246e-17j)
(-0.70759445+8.570419e-17j)
(-0.691736+8.475212e-17j)
(-0.68728745+8.446075e-17j)
(-0.69470495+8.486067e-17j)
(-0.712795+8.588631e-17j)
(-0.73878074+8.737907e-17j)
(-0.76850593+8.909837e-17j)
(-0.7967629+9.0739907e-17j)
(-0.8177206+9.195982e-17j)
(-0.83461744+9.296665e-17j)
(-0.8229507+9.2280084e-17j)
(-0.7867742+9.012827e-17j)
(-0.72293603+8.630803e-17j)
(-0.6300864+8.0723464e-17j)
(-0.5088875+7.340057e-17j)
(-0.36207107+6.4492725e-17j)
(-0.19434083+5.427647e-17j)
(-0.012122532+4.313779e-17j)
(0.17681715+3.1549605e-17j)
(0.36385742+2.0042417e-17j)
(0.54007727+9.170002e-18j)
(0.69683623-5.271171e-19j)
(0.82633823-8.557666e-18j)
(0.92213726-1.4512384e-17j)
(0.979547-1.8091082e-17j)
(0.9959283-1.9121957e-17j)
(0.97106695-1.7571823e-17j)
(0.9063634-1.3546525e-17j)
(0.8055004-7.281713e-18j)
(0.6739344+8.752149e-19j)
(0.51851326+1.049042e-17j)
(0.34700805+2.1074143e-17j)
(0.16760015+3.2113984e-17j)
(-0.011641269+4.310832e-17j)
(-0.18325087+5.359741e-17j)
(-0.3407941+6.3189875e-17j)
(-0.4791998+7.158272e-17j)
(-0.59497887+7.857375e-17j)
(-0.6863168+8.406575e-17j)
(-0.75304013+8.806265e-17j)
(-0.79646575+9.065835e-17j)
(-0.8191526+9.2019694e-17j)
(-0.82434386+9.236538e-17j)
(-0.8164053+9.194265e-17j)
(-0.79963+9.1004174e-17j)
(-0.7781051+8.978699e-17j)
(-0.7553988+8.849504e-17j)
(-0.73432684+8.728681e-17j)
(-0.7168141+8.6268744e-17j)
(-0.70385855+8.5494404e-17j)
(-0.6955914+8.4969223e-17j)
(-0.6914233+8.465972e-17j)
(-0.6902534+8.450603e-17j)
(-0.69071615+8.443596e-17j)
(-0.69143677+8.437926e-17j)
(-0.69126564+8.428004e-17j)
(-0.68946606+8.41065e-17j)
(-0.6766362+8.329309e-17j)
(-0.6720839+8.304216e-17j)
(-0.66799325+8.285502e-17j)
(-0.66551876+8.279223e-17j)
(-0.66595185+8.291959e-17j)
(-0.6705177+8.329757e-17j)
(-0.6801619+8.397017e-17j)
(-0.6953503+8.495446e-17j)
(-0.71590424+8.623199e-17j)
(-0.74089503+8.774327e-17j)
(-0.76860887+8.9385984e-17j)
(-0.79659265+9.1017436e-17j)
(-0.82178015+9.2461316e-17j)
(-0.84068996+9.351838e-17j)
(-0.84968007+9.398013e-17j)
(-0.845238+9.3644786e-17j)
(-0.81508106+9.177038e-17j)
(-0.7757715+8.9391185e-17j)
(-0.71716464+8.58659e-17j)
(-0.6387955+8.115591e-17j)
(-0.5413202+7.52881e-17j)
(-0.42653808+6.8358126e-17j)
(-0.2973279+6.052834e-17j)
(-0.15749818+5.202052e-17j)
(-0.011564422+4.310361e-17j)
(0.13553135+3.4077628e-17j)
(0.2787348+2.5254676e-17j)
(0.41320357+1.693878e-17j)
(0.53461516+9.406062e-18j)
(0.6394349+2.8868649e-18j)
(0.7251228-2.4487325e-18j)
(0.79026437-6.500861e-18j)
(0.83461744-9.2445176e-18j)
(0.85930884-1.07286235e-17j)
(0.8659132-1.1069656e-17j)
(0.85708714-1.0440492e-17j)
(0.83611447-9.055454e-18j)
(0.8066506-7.152907e-18j)
(0.7724532-4.976859e-18j)
(0.73712105-2.7591157e-18j)
(0.70385855-7.0341113e-19j)
(0.67528445+1.0272826e-18j)
(0.6532968+2.3193644e-18j)
(0.63900155+3.1126383e-18j)
(0.6327067+3.399686e-18j)
(0.6339796+3.2209063e-18j)
(0.64175767+2.6559088e-18j)
(0.65450096+1.8122483e-18j)
(0.67957145+2.4931337e-19j)
(0.6960894-7.343061e-19j)
(0.7109078-1.5783218e-18j)
(0.7225608-2.2031319e-18j)
(0.7300404-2.5602896e-18j)
(0.7328571-2.6343573e-18j)
(0.73104507-2.4413417e-18j)
(0.72511804-2.0241426e-18j)
(0.71598107-1.4457017e-18j)
(0.7048111-7.8070325e-19j)
(0.6929186-1.0677278e-19j)
(0.68160534+5.0390943e-19j)
(0.672031+9.917643e-19j)
(0.66510373+1.3151056e-18j)
(0.6614001+1.4531618e-18j)
(0.6611243+1.4066868e-18j)
(0.6733066+6.3292205e-19j)
(0.67850643+3.4233898e-19j)
(0.6846724+2.8136652e-20j)
(0.6910217-2.7191456e-19j)
(0.6967952-5.24607e-19j)
(0.7013409-7.045469e-19j)
(0.70417994-7.9632693e-19j)
(0.70505226-7.954682e-19j)
(0.70393544-7.081167e-19j)
(0.7010371-5.496139e-19j)
(0.696763-3.4217202e-19j)
(0.6916632-1.1196086e-19j)
(0.6863653+1.1403938e-19j)
(0.6815009+3.110665e-19j)
(0.6776332+4.5916605e-19j)
(0.6751952+5.4508995e-19j)
(0.683643+0j)
(0.68409723+0j)
(0.6851319+0j)
(0.68658096+0j)
(0.6882277+0j)
(0.68983483+0j)
(0.691175+0j)
(0.69206125+0j)
(0.692371+0j)
(0.69206125+0j)
(0.69117486+0j)
(0.68983483+0j)
(0.6882277+0j)
(0.68658096+0j)
(0.68513197+0j)
(0.68409723+0j)
(0.683643+0j)
(0.68409723+0j)
(0.6851319+0j)
(0.68658096+0j)
(0.6882277+0j)
(0.68983483+0j)
(0.691175+0j)
(0.69206125+0j)
(0.692371+0j)
(0.69206125+0j)
(0.69117486+0j)
(0.68983483+0j)
(0.6882277+0j)
(0.68658096+0j)
(0.68513197+0j)
(0.68409723+0j)
(0.683643+0j)
(0.68409723+0j)
(0.6851319+0j)
(0.68658096+0j)
(0.6882277+0j)
(0.68983483+0j)
(0.691175+0j)
(0.69206125+0j)
(0.692371+0j)
(0.69206125+0j)
(0.69117486+0j)
(0.68983483+0j)
(0.6882277+0j)
(0.68658096+0j)
(0.68513197+0j)
(0.68409723+0j)
(0.6744429+5.6334143e-19j)
(0.6751953+5.4508995e-19j)
(0.6776332+4.5916605e-19j)
(0.6815009+3.110665e-19j)
(0.68636537+1.1403938e-19j)
(0.6916632-1.1196086e-19j)
(0.69676304-3.4217202e-19j)
(0.7010371-5.496139e-19j)
(0.70393544-7.081167e-19j)
(0.70505226-7.954682e-19j)
(0.70417994-7.9632693e-19j)
(0.7013409-7.045469e-19j)
(0.6967952-5.24607e-19j)
(0.6910217-2.7191456e-19j)
(0.6846725+2.8136652e-20j)
(0.67850643+3.4233898e-19j)
(0.6733066+6.3292205e-19j)
(0.67002624+8.615969e-19j)
(0.66889876+9.939959e-19j)
(0.6701838+1.0040391e-18j)
(0.67389333+8.77725e-19j)
(0.67977685+6.158703e-19j)
(0.68733066+2.3539924e-19j)
(0.69583523-2.3108934e-19j)
(0.7044167-7.375851e-19j)
(0.71212703-1.2286744e-18j)
(0.71804005-1.6450146e-18j)
(0.721351-1.9298105e-18j)
(0.7214729-2.0356826e-18j)
(0.71812016-1.9312173e-18j)
(0.7113674-1.6064585e-18j)
(0.7016802-1.0766452e-18j)
(0.68990785-3.836087e-19j)
(0.6774739+4.055615e-19j)
(0.6654896+1.2027469e-18j)
(0.6554569+1.9058006e-18j)
(0.6489034+2.407922e-18j)
(0.64723104+2.6087287e-18j)
(0.65155315+2.426137e-18j)
(0.66253465+1.8079858e-18j)
(0.6802485+7.4229063e-19j)
(0.70406425-7.3497314e-19j)
(0.732583-2.5355172e-18j)
(0.7636283-4.51855e-18j)
(0.79430175-6.495164e-18j)
(0.82110727-8.23736e-18j)
(0.84013724-9.491334e-18j)
(0.84731686-9.994317e-18j)
(0.82948905-8.930489e-18j)
(0.80205667-7.2229295e-18j)
(0.7534996-4.186309e-18j)
(0.6818761+2.8809158e-19j)
(0.5864114+6.234454e-18j)
(0.4676937+1.360222e-17j)
(0.32778907+2.2250967e-17j)
(0.1702599+3.195112e-17j)
(7.685653e-05+4.2390793e-17j)
(-0.17657602+5.3188696e-17j)
(-0.35259613+6.391255e-17j)
(-0.52034163+7.410194e-17j)
(-0.672072+8.3294335e-17j)
(-0.8004203+9.105257e-17j)
(-0.8988648+9.699183e-17j)
(-0.9621649+1.0080449e-16j)
(-0.99592835+1.02844093e-16j)
(-0.979547+1.01868834e-16j)
(-0.92213714+9.8416864e-17j)
(-0.82633823+9.263958e-17j)
(-0.69683623+8.481071e-17j)
(-0.54007727+7.5310394e-17j)
(-0.3638574+6.4602104e-17j)
(-0.17681718+5.320346e-17j)
(0.012122535+4.1653206e-17j)
(0.1943408+3.047659e-17j)
(0.3620711+2.0151797e-17j)
(0.5088875+1.1079824e-17j)
(0.6300865+3.560125e-18j)
(0.72293603-2.2261068e-18j)
(0.78677434-6.223797e-18j)
(0.8229508-8.502326e-18j)
(0.8254174-8.681176e-18j)
(0.8177206-8.1820694e-18j)
(0.79676294-6.8354256e-18j)
(0.76850593-5.0164534e-18j)
(0.7387808-3.0954782e-18j)
(0.712795-1.4059118e-18j)
(0.69470495-2.16153e-19j)
(0.6872875+2.9230955e-19j)
(0.691736+3.887946e-20j)
(0.7075944-9.511298e-19j)
(0.7328314-2.5507218e-18j)
(0.76404685-4.5441783e-18j)
(0.7967902-6.6475324e-18j)
(0.825963-8.534691e-18j)
(0.84627086-9.866909e-18j)
(0.8526855-1.0323062e-17j)
(0.8408822-9.6281276e-18j)
(0.80784726-7.577507e-18j)
(0.75135833-4.055191e-18j)
(0.6709741+9.556474e-19j)
(0.5678603+7.370379e-18j)
(0.44471973+1.5008969e-17j)
(0.30559993+2.360966e-17j)
(0.15559714+3.2848953e-17j)
(0.0004812472+4.236603e-17j)
(-0.15372424+5.1789424e-17j)
(-0.30117223+6.076374e-17j)
(-0.43659604+6.897399e-17j)
(-0.5556546+7.6165825e-17j)
(-0.65519273+8.215994e-17j)
(-0.7333977+8.68599e-17j)
(-0.7898424+9.025279e-17j)
(-0.82541734+9.240331e-17j)
(-0.8419269+9.3442034e-17j)
(-0.84264076+9.3549105e-17j)
(-0.83116907+9.2935396e-17j)
(-0.8113503+9.182267e-17j)
(-0.786915+9.042485e-17j)
(-0.7611919+8.893183e-17j)
(-0.73687994+8.749741e-17j)
(-0.71590424+8.623199e-17j)
(-0.6993654+8.5200305e-17j)
(-0.6875789+8.442432e-17j)
(-0.6801954+8.3890156e-17j)
(-0.67638177+8.355823e-17j)
(-0.6750395+8.337521e-17j)
(-0.67503244+8.328605e-17j)
(-0.67539513+8.324491e-17j)
(-0.6662999+8.2660165e-17j)
(-0.6664931+8.269982e-17j)
(-0.6675337+8.2826885e-17j)
(-0.6699595+8.306415e-17j)
(-0.67451936+8.3444193e-17j)
(-0.68202376+8.400212e-17j)
(-0.693167+8.47665e-17j)
(-0.7083413+8.574992e-17j)
(-0.7274686+8.6940104e-17j)
(-0.7498709+8.829288e-17j)
(-0.7741969+8.9728146e-17j)
(-0.79842114+9.1129396e-17j)
(-0.81991774+9.2347284e-17j)
(-0.83560985+9.3207314e-17j)
(-0.84218127+9.3520974e-17j)
(-0.83633596+9.309969e-17j)
(-0.81508106+9.177038e-17j)
(-0.7757715+8.9391185e-17j)
(-0.71716464+8.58659e-17j)
(-0.6387955+8.115591e-17j)
(-0.5413202+7.52881e-17j)
(-0.42653808+6.8358126e-17j)
(-0.2973279+6.052834e-17j)
(-0.15749818+5.202052e-17j)
(-0.011564422+4.310361e-17j)
(0.13553135+3.4077628e-17j)
(0.2787348+2.5254676e-17j)
(0.41320357+1.693878e-17j)
(0.53461516+9.406062e-18j)
(0.6394349+2.8868649e-18j)
(0.7251228-2.4487325e-18j)
(0.79026437-6.500861e-18j)
(0.83461744-9.2445176e-18j)
(0.85930884-1.07286235e-17j)
(0.8659132-1.1069656e-17j)
(0.85708714-1.0440492e-17j)
(0.83611447-9.055454e-18j)
(0.8066506-7.152907e-18j)
(0.7724532-4.976859e-18j)
(0.73712105-2.7591157e-18j)
(0.70385855-7.0341113e-19j)
(0.67528445+1.0272826e-18j)
(0.6532968+2.3193644e-18j)
(0.63900155+3.1126383e-18j)
(0.6327067+3.399686e-18j)
(0.6339796+3.2209063e-18j)
(0.64175767+2.6559088e-18j)
(0.65450096+1.8122483e-18j)
(0.67957145+2.4931337e-19j)
(0.6960894-7.343061e-19j)
(0.7109078-1.5783218e-18j)
(0.7225608-2.2031319e-18j)
(0.7300404-2.5602896e-18j)
(0.7328571-2.6343573e-18j)
(0.73104507-2.4413417e-18j)
(0.72511804-2.0241426e-18j)
(0.71598107-1.4457017e-18j)
(0.7048111-7.8070325e-19j)
(0.6929186-1.0677278e-19j)
(0.68160534+5.0390943e-19j)
(0.672031+9.917643e-19j)
(0.66510373+1.3151056e-18j)
(0.6614001+1.4531618e-18j)
(0.6611243+1.4066868e-18j)
(0.6733066+6.3292205e-19j)
(0.67850643+3.4233898e-19j)
(0.6846724+2.8136652e-20j)
(0.6910217-2.7191456e-19j)
(0.6967952-5.24607e-19j)
(0.7013409-7.045469e-19j)
(0.70417994-7.9632693e-19j)
(0.70505226-7.954682e-19j)
(0.70393544-7.081167e-19j)
(0.7010371-5.496139e-19j)
(0.696763-3.4217202e-19j)
(0.6916632-1.1196086e-19j)
(0.6863653+1.1403938e-19j)
(0.6815009+3.110665e-19j)
(0.6776332+4.5916605e-19j)
(0.6751952+5.4508995e-19j)
(0.683643+0j)
(0.68409723+0j)
(0.6851319+0j)
(0.68658096+0j)
(0.6882277+0j)
(0.68983483+0j)
(0.691175+0j)
(0.69206125+0j)
(0.692371+0j)
(0.69206125+0j)
(0.69117486+0j)
(0.68983483+0j)
(0.6882277+0j)
(0.68658096+0j)
(0.68513197+0j)
(0.68409723+0j)
(0.683643+0j)
(0.68409723+0j)
(0.6851319+0j)
(0.68658096+0j)
(0.6882277+0j)
(0.68983483+0j)
(0.691175+0j)
(0.69206125+0j)
(0.692371+0j)
(0.69206125+0j)
(0.69117486+0j)
(0.68983483+0j)
(0.6882277+0j)
(0.68658096+0j)
(0.68513197+0j)
(0.68409723+0j)
(0.6744429+5.6334143e-19j)
(0.6751953+5.4508995e-19j)
(0.6776332+4.5916605e-19j)
(0.6815009+3.110665e-19j)
(0.68636537+1.1403938e-19j)
(0.6916632-1.1196086e-19j)
(0.69676304-3.4217202e-19j)
(0.7010371-5.496139e-19j)
(0.70393544-7.081167e-19j)
(0.70505226-7.954682e-19j)
(0.70417994-7.9632693e-19j)
(0.7013409-7.045469e-19j)
(0.6967952-5.24607e-19j)
(0.6910217-2.7191456e-19j)
(0.6846725+2.8136652e-20j)
(0.67850643+3.4233898e-19j)
(0.6733066+6.3292205e-19j)
(0.67002624+8.615969e-19j)
(0.66889876+9.939959e-19j)
(0.6701838+1.0040391e-18j)
(0.67389333+8.77725e-19j)
(0.67977685+6.158703e-19j)
(0.68733066+2.3539924e-19j)
(0.69583523-2.3108934e-19j)
(0.7044167-7.375851e-19j)
(0.71212703-1.2286744e-18j)
(0.71804005-1.6450146e-18j)
(0.721351-1.9298105e-18j)
(0.7214729-2.0356826e-18j)
(0.71812016-1.9312173e-18j)
(0.7113674-1.6064585e-18j)
(0.7016802-1.0766452e-18j)
(0.68070775+1.7973276e-19j)
(0.66857195+9.506514e-19j)
(0.6579909+1.661913e-18j)
(0.6503768+2.2168672e-18j)
(0.6470411+2.5219612e-18j)
(0.6490595+2.496768e-18j)
(0.6571412+2.0839651e-18j)
(0.6715105+1.258372e-18j)
(0.6918129+3.4173936e-20j)
(0.71705526-1.5304413e-18j)
(0.74558806-3.3318444e-18j)
(0.7751344-5.2230967e-18j)
(0.8028693-7.019771e-18j)
(0.825548-8.509274e-18j)
(0.83967775-9.463198e-18j)
(0.841726-9.6519785e-18j)
(0.8191526-8.297568e-18j)
(0.7879857-6.361333e-18j)
(0.7372665-3.1923131e-18j)
(0.6654789+1.2921307e-18j)
(0.57207704+7.112179e-18j)
(0.45763576+1.4218092e-17j)
(0.32394472+2.2486366e-17j)
(0.17403387+3.1720027e-17j)
(0.012122535+4.1653206e-17j)
(-0.15651023+5.196002e-17j)
(-0.32573104+6.226753e-17j)
(-0.48882544+7.217213e-17j)
(-0.6388268+8.1258657e-17j)
(-0.76888114+8.9121346e-17j)
(-0.87262934+9.5385366e-17j)
(-0.94458205+9.9727846e-17j)
(-0.9804635+1.0189714e-16j)
(-0.9772683+1.0172931e-16j)
(-0.93428075+9.916044e-17j)
(-0.85238224+9.4234315e-17j)
(-0.73429817+8.7104593e-17j)
(-0.5845095+7.8031084e-17j)
(-0.4090673+6.737041e-17j)
(-0.2153197+5.556106e-17j)
(-0.011564413+4.3103614e-17j)
(0.19335282+3.0537086e-17j)
(0.39047423+1.8412607e-17j)
(0.5711749+7.26582e-18j)
(0.727593-2.410432e-18j)
(0.8530216-1.0191552e-17j)
(0.9422391-1.5743269e-17j)
(0.99176115-1.8838982e-17j)
(1-1.9371271e-17j)
(0.96755487-1.7356775e-17j)
(0.8963612-1.2934064e-17j)
(0.79035836-6.354534e-18j)
(0.6550236+2.0331725e-18j)
(0.49705502+1.18043595e-17j)
(0.32398728+2.2483758e-17j)
(0.14376038+3.3573746e-17j)
(-0.035732634+4.458349e-17j)
(-0.20709066+5.5057178e-17j)
(-0.3638148+6.45995e-17j)
(-0.5006581+7.289667e-17j)
(-0.61388975+7.97317e-17j)
(-0.70145875+8.499292e-17j)
(-0.7630424+8.8675105e-17j)
(-0.7999778+9.08734e-17j)
(-0.82428104+9.2333725e-17j)
(-0.8210317+9.216258e-17j)
(-0.80380213+9.117092e-17j)
(-0.7780267+8.9681354e-17j)
(-0.7492106+8.8017715e-17j)
(-0.7224727+8.6478894e-17j)
(-0.70212185+8.5314826e-17j)
(-0.6913026+8.4706603e-17j)
(-0.691736+8.475212e-17j)
(-0.7035793+8.545834e-17j)
(-0.72541445+8.6741084e-17j)
(-0.7543692+8.8431993e-17j)
(-0.78636026+9.029248e-17j)
(-0.8164423+9.203363e-17j)
(-0.83923155+9.334035e-17j)
(-0.8493744+9.389807e-17j)
(-0.84201866+9.341984e-17j)
(-0.8130163+9.167177e-17j)
(-0.76009274+8.8494495e-17j)
(-0.6822912+8.381925e-17j)
(-0.5803323+7.76769e-17j)
(-0.4566061+7.019926e-17j)
(-0.3150324+6.161243e-17j)
(-0.16079904+5.2222635e-17j)
(8.889661e-09+4.2395498e-17j)
(0.16079904+3.253043e-17j)
(0.31503236+2.303209e-17j)
(0.45660612+1.4281138e-17j)
(0.5803322+6.6066936e-18j)
(0.6822912+2.6267493e-19j)
(0.7600927-4.5900207e-18j)
(0.81301624-7.894014e-18j)
(0.85121864-1.0261049e-17j)
(0.8582765-1.0665401e-17j)
(0.84673035-9.8950455e-18j)
(0.82152236-8.262777e-18j)
(0.7882227-6.122925e-18j)
(0.7525407-3.8396318e-18j)
(0.71982634-1.7543949e-18j)
(0.69460344-1.5566168e-19j)
(0.6801716+7.4699615e-19j)
(0.6783116+8.4192335e-19j)
(0.68911684+1.26019e-19j)
(0.7109666-1.293951e-18j)
(0.74064314-3.2095174e-18j)
(0.773586-5.32752e-18j)
(0.8042617-7.2945915e-18j)
(0.82662255-8.727159e-18j)
(0.83461744-9.2445176e-18j)
(0.8229507-8.502326e-18j)
(0.7867742-6.223797e-18j)
(0.72293603-2.2261068e-18j)
(0.6300864+3.560125e-18j)
(0.5088875+1.1079824e-17j)
(0.36207107+2.0151797e-17j)
(0.19434083+3.047659e-17j)
(0.012122532+4.1653206e-17j)
(-0.17681715+5.3203463e-17j)
(-0.36385742+6.4602104e-17j)
(-0.54007727+7.5310394e-17j)
(-0.69683623+8.481071e-17j)
(-0.82633823+9.263958e-17j)
(-0.92213726+9.8416864e-17j)
(-0.979547+1.01868834e-16j)
(-0.9867283+1.0228075e-16j)
(-0.962165+1.0080449e-16j)
(-0.89886475+9.699183e-17j)
(-0.8004203+9.105257e-17j)
(-0.672072+8.3294335e-17j)
(-0.52034163+7.410194e-17j)
(-0.35259616+6.391255e-17j)
(-0.17657602+5.3188696e-17j)
(7.684725e-05+4.2390793e-17j)
(0.1702599+3.195112e-17j)
(0.3277891+2.2250967e-17j)
(0.4676937+1.360222e-17j)
(0.58641136+6.234454e-18j)
(0.6818761+2.8809158e-19j)
(0.7534996-4.186309e-18j)
(0.8020566-7.2229295e-18j)
(0.838689-9.4938315e-18j)
(0.84731674-9.994317e-18j)
(0.8401371-9.491334e-18j)
(0.82110727-8.23736e-18j)
(0.7943018-6.495164e-18j)
(0.76362836-4.51855e-18j)
(0.7325831-2.5355172e-18j)
(0.70406425-7.3497314e-19j)
(0.6802485+7.4229063e-19j)
(0.6625346+1.8079858e-18j)
(0.6515531+2.426137e-18j)
(0.64723104+2.6087287e-18j)
(0.6489034+2.407922e-18j)
(0.6554569+1.9058006e-18j)
(0.6654897+1.2027469e-18j)
(0.6774739+4.055615e-19j)
(0.68990785-3.836087e-19j)
(0.7016802-1.0766452e-18j)
(0.71136737-1.6064585e-18j)
(0.71812016-1.9312173e-18j)
(0.7214729-2.0356826e-18j)
(0.72135097-1.9298105e-18j)
(0.71804005-1.6450146e-18j)
(0.71212703-1.2286744e-18j)
(0.7044167-7.375851e-19j)
(0.69583523-2.3108934e-19j)
(0.68733054+2.3539924e-19j)
(0.67977685+6.158703e-19j)
(0.6738934+8.77725e-19j)
(0.6701838+1.0040391e-18j)
(0.6688988+9.939959e-19j)
(0.6700263+8.615969e-19j)
(0.6733066+6.3292205e-19j)
(0.67850643+3.4233898e-19j)
(0.6846724+2.8136652e-20j)
(0.6910217-2.7191456e-19j)
(0.6967952-5.24607e-19j)
(0.7013409-7.045469e-19j)
(0.70417994-7.9632693e-19j)
(0.70505226-7.954682e-19j)
(0.70393544-7.081167e-19j)
(0.7010371-5.496139e-19j)
(0.696763-3.4217202e-19j)
(0.6916632-1.1196086e-19j)
(0.6863653+1.1403938e-19j)
(0.6815009+3.110665e-19j)
(0.6776332+4.5916605e-19j)
(0.6751952+5.4508995e-19j)
(0.683643+0j)
(0.68409723+0j)
(0.6851319+0j)
(0.68658096+0j)
(0.6882277+0j)
(0.68983483+0j)
(0.691175+0j)
(0.69206125+0j)
(0.692371+0j)
(0.69206125+0j)
(0.69117486+0j)
(0.68983483+0j)
(0.6882277+0j)
(0.68658096+0j)
(0.68513197+0j)
(0.68409723+0j)
(0.683643+0j)
(0.68409723+0j)
(0.6851319+0j)
(0.68658096+0j)
(0.6882277+0j)
(0.68983483+0j)
(0.691175+0j)
(0.69206125+0j)
(0.692371+0j)
(0.69206125+0j)
(0.69117486+0j)
(0.68983483+0j)
(0.6882277+0j)
(0.68658096+0j)
(0.68513197+0j)
(0.68409723+0j)
(0.683643+0j)
(0.68409723+0j)
(0.6851319+0j)
(0.68658096+0j)
(0.6882277+0j)
(0.68983483+0j)
(0.691175+0j)
(0.69206125+0j)
(0.692371+0j)
(0.69206125+0j)
(0.69117486+0j)
(0.68983483+0j)
(0.6882277+0j)
(0.68658096+0j)
(0.68513197+0j)
(0.68409723+0j)
(0.683643+0j)
(0.68409723+0j)
(0.6851319+0j)
(0.68658096+0j)
(0.6882277+0j)
(0.68983483+0j)
(0.691175+0j)
(0.69206125+0j)
(0.692371+0j)
(0.69206125+0j)
(0.69117486+0j)
(0.68983483+0j)
(0.6882277+0j)
(0.68658096+0j)
(0.68513197+0j)
(0.68409723+0j)
(0.6744429+5.6334143e-19j)
(0.6751953+5.4508995e-19j)
(0.6776332+4.5916605e-19j)
(0.6815009+3.110665e-19j)
(0.68636537+1.1403938e-19j)
(0.6916632-1.1196086e-19j)
(0.69676304-3.4217202e-19j)
(0.7010371-5.496139e-19j)
(0.70393544-7.081167e-19j)
(0.70505226-7.954682e-19j)
(0.70417994-7.9632693e-19j)
(0.7013409-7.045469e-19j)
(0.6967952-5.24607e-19j)
(0.6910217-2.7191456e-19j)
(0.6846725+2.8136652e-20j)
(0.67850643+3.4233898e-19j)
(0.6733066+6.3292205e-19j)
(0.67002624+8.615969e-19j)
(0.66889876+9.939959e-19j)
(0.6701838+1.0040391e-18j)
(0.67389333+8.77725e-19j)
(0.67977685+6.158703e-19j)
(0.68733066+2.3539924e-19j)
(0.69583523-2.3108934e-19j)
(0.7044167-7.375851e-19j)
(0.71212703-1.2286744e-18j)
(0.71804005-1.6450146e-18j)
(0.721351-1.9298105e-18j)
(0.7214729-2.0356826e-18j)
(0.71812016-1.9312173e-18j)
(0.7113674-1.6064585e-18j)
(0.7016802-1.0766452e-18j)
(0.68990785-3.836087e-19j)
(0.6774739+4.055615e-19j)
(0.6654896+1.2027469e-18j)
(0.6554569+1.9058006e-18j)
(0.6489034+2.407922e-18j)
(0.64723104+2.6087287e-18j)
(0.65155315+2.426137e-18j)
(0.66253465+1.8079858e-18j)
(0.6802485+7.4229063e-19j)
(0.70406425-7.3497314e-19j)
(0.732583-2.5355172e-18j)
(0.7636283-4.51855e-18j)
(0.79430175-6.495164e-18j)
(0.82110727-8.23736e-18j)
(0.84013724-9.491334e-18j)
(0.84731686-9.994317e-18j)
(0.82948905-8.930489e-18j)
(0.80205667-7.2229295e-18j)
(0.7534996-4.186309e-18j)
(0.6818761+2.8809158e-19j)
(0.5864114+6.234454e-18j)
(0.4676937+1.360222e-17j)
(0.32778907+2.2250967e-17j)
(0.1702599+3.195112e-17j)
(7.685653e-05+4.2390793e-17j)
(-0.17657602+5.3188696e-17j)
(-0.35259613+6.391255e-17j)
(-0.52034163+7.410194e-17j)
(-0.672072+8.3294335e-17j)
(-0.8004203+9.105257e-17j)
(-0.8988648+9.699183e-17j)
(-0.9621649+1.0080449e-16j)
(-0.99592835+1.02844093e-16j)
(-0.979547+1.01868834e-16j)
(-0.92213714+9.8416864e-17j)
(-0.82633823+9.263958e-17j)
(-0.69683623+8.481071e-17j)
(-0.54007727+7.5310394e-17j)
(-0.3638574+6.4602104e-17j)
(-0.17681718+5.320346e-17j)
(0.012122535+4.1653206e-17j)
(0.1943408+3.047659e-17j)
(0.3620711+2.0151797e-17j)
(0.5088875+1.1079824e-17j)
(0.6300865+3.560125e-18j)
(0.72293603-2.2261068e-18j)
(0.78677434-6.223797e-18j)
(0.8229508-8.502326e-18j)
(0.83461744-9.244518e-18j)
(0.82662255-8.727159e-18j)
(0.8042617-7.2945915e-18j)
(0.773586-5.32752e-18j)
(0.74064314-3.2095174e-18j)
(0.7109666-1.293951e-18j)
(0.6891169+1.2601903e-19j)
(0.67831165+8.4192345e-19j)
(0.6801716+7.4699615e-19j)
(0.6946034-1.5566159e-19j)
(0.71982634-1.7543949e-18j)
(0.7525407-3.8396318e-18j)
(0.7882227-6.122925e-18j)
(0.82152236-8.262777e-18j)
(0.84673035-9.8950455e-18j)
(0.85827637-1.0665401e-17j)
(0.85121864-1.0261049e-17j)
(0.82191825-8.439103e-18j)
(0.7675915-5.049187e-18j)
(0.68737125-4.839165e-20j)
(0.5821946+6.492654e-18j)
(0.45477766+1.4393098e-17j)
(0.30944428+2.3374261e-17j)
(0.15182318+3.3080045e-17j)
(-0.011564432+4.3103614e-17j)
(-0.17379004+5.30181e-17j)
(-0.32803735+6.240876e-17j)
(-0.46811223+7.0903805e-17j)
(-0.5888998+7.820151e-17j)
(-0.6867319+8.409116e-17j)
(-0.7596332+8.846636e-17j)
(-0.8074254+9.1329435e-17j)
(-0.8316822+9.278692e-17j)
(-0.8353036+9.303647e-17j)
(-0.82299846+9.234636e-17j)
(-0.8000451+9.102959e-17j)
(-0.77202594+8.941475e-17j)
(-0.7443112+8.781612e-17j)
(-0.72157+8.650569e-17j)
(-0.7073533+8.5689426e-17j)
(-0.70378166+8.54897e-17j)
(-0.7113684+8.593528e-17j)
(-0.72898704+8.6959843e-17j)
(-0.75398886+8.8408707e-17j)
(-0.78245586+9.00534e-17j)
(-0.80956584+9.1612576e-17j)
(-0.83003765+9.2777385e-17j)
(-0.83861464+9.323922e-17j)
(-0.82134587+9.2153995e-17j)
(-0.79335445+9.046784e-17j)
(-0.74340004+8.747236e-17j)
(-0.6703347+8.308712e-17j)
(-0.5745654+7.7323785e-17j)
(-0.45805424+7.028794e-17j)
(-0.32419303+6.2173357e-17j)
(-0.177564+5.324919e-17j)
(-0.023610108+4.3841198e-17j)
(0.13175736+3.430872e-17j)
(0.28257918+2.5019277e-17j)
(0.42326143+1.6322909e-17j)
(0.5489495+8.528336e-18j)
(0.6558321+1.8828258e-18j)
(0.741356-3.4427286e-18j)
(0.8043353-7.362458e-18j)
(0.84495384-9.87744e-18j)
(0.8648997-1.1070962e-17j)
(0.8663727-1.1097793e-17j)
(0.85264647-1.0168578e-17j)
(0.827547-8.530847e-18j)
(0.7951445-6.4483605e-18j)
(0.7594482-4.180532e-18j)
(0.7241301-1.9636476e-18j)
(0.6922942+4.705523e-21j)
(0.6663086+1.5768965e-18j)
(0.6477087+2.6615363e-18j)
(0.6371731+3.224599e-18j)
(0.6345691+3.2856468e-18j)
(0.63905966+2.9098396e-18j)
(0.64925647+2.1967427e-18j)
(0.663403+1.2671584e-18j)
(0.67037135+8.126548e-19j)
(0.68718743-1.8921616e-19j)
(0.70340914-1.1191558e-18j)
(0.7174808-1.8920654e-18j)
(0.728178-2.4462504e-18j)
(0.7346855-2.7463182e-18j)
(0.7366332-2.7835136e-18j)
(0.7340939-2.5737566e-18j)
(0.7275455-2.1538185e-18j)
(0.7178021-1.5761715e-18j)
(0.7059236-9.030998e-19j)
(0.6931115-2.0063745e-19j)
(0.6805985+4.671574e-19j)
(0.6695444+1.043191e-18j)
(0.6609406+1.4812986e-18j)
(0.6555335+1.7490258e-18j)
(0.66297024+1.2658441e-18j)
(0.66443545+1.2039359e-18j)
(0.66843927+1.0221326e-18j)
(0.67462444+7.3212453e-19j)
(0.68246084+3.5311798e-19j)
(0.691283-8.867661e-20j)
(0.70033556-5.609277e-19j)
(0.70882624-1.0265575e-18j)
(0.71598107-1.4457017e-18j)
(0.7211029-1.7782884e-18j)
(0.72362816-1.9871867e-18j)
(0.72317946-2.0417713e-18j)
(0.7196105-1.9216433e-18j)
(0.71304005-1.620151e-18j)
(0.7038687-1.1472925e-18j)
(0.6927782-5.3155515e-19j)
(0.68070775+1.7973276e-19j)
(0.66857195+9.506514e-19j)
(0.6579909+1.661913e-18j)
(0.6503768+2.2168672e-18j)
(0.6470411+2.5219612e-18j)
(0.6490595+2.496768e-18j)
(0.6571412+2.0839651e-18j)
(0.6715105+1.258372e-18j)
(0.6918129+3.4173936e-20j)
(0.71705526-1.5304413e-18j)
(0.74558806-3.3318444e-18j)
(0.7751344-5.2230967e-18j)
(0.8028693-7.019771e-18j)
(0.825548-8.509274e-18j)
(0.83967775-9.463198e-18j)
(0.841726-9.6519785e-18j)
(0.8283527-8.860909e-18j)
(0.79688764-6.906423e-18j)
(0.74476516-3.6514792e-18j)
(0.670559+9.810642e-19j)
(0.5739394+6.99814e-18j)
(0.45580733+1.4330052e-17j)
(0.31835663+2.2828537e-17j)
(0.16505799+3.2269642e-17j)
(0.00055811263+4.2361325e-17j)
(-0.16950123+5.275549e-17j)
(-0.33873603+6.306386e-17j)
(-0.5003316+7.2876677e-17j)
(-0.6473943+8.178326e-17j)
(-0.7733218+8.939326e-17j)
(-0.87216985+9.5357235e-17j)
(-0.9389912+9.9385506e-17j)
(-0.97012705+1.0126421e-16j)
(-0.9631974+1.00867714e-16j)
(-0.91804755+9.816644e-17j)
(-0.83598495+9.323028e-17j)
(-0.7199638+8.622687e-17j)
(-0.57445157+7.741522e-17j)
(-0.40522295+6.713501e-17j)
(-0.21909368+5.5792154e-17j)
(-0.023610093+4.3841198e-17j)
(0.17328703+3.176576e-17j)
(0.3636091+2.0057621e-17j)
(0.5396587+9.19563e-18j)
(0.6943478-3.7474945e-19j)
(0.8214825-8.260335e-18j)
(0.91600364-1.413681e-17j)
(0.9741783-1.7762337e-17j)
(0.99373513-1.8987663e-17j)
(0.9741781-1.7762337e-17j)
(0.9160035-1.413681e-17j)
(0.8214825-8.260335e-18j)
(0.69434786-3.7474945e-19j)
(0.5396588+9.19563e-18j)
(0.36360908+2.0057621e-17j)
(0.17328703+3.176576e-17j)
(-0.023610108+4.3841198e-17j)
(-0.21909367+5.5792154e-17j)
(-0.40522292+6.713501e-17j)
(-0.57445157+7.741522e-17j)
(-0.7199638+8.622687e-17j)
(-0.83598506+9.323028e-17j)
(-0.91804767+9.816644e-17j)
(-0.9631973+1.00867714e-16j)
(-0.979327+1.01827555e-16j)
(-0.94789314+9.9930585e-17j)
(-0.8796685+9.581641e-17j)
(-0.77840185+8.970433e-17j)
(-0.64925665+8.18973e-17j)
(-0.49850318+7.2764716e-17j)
(-0.3331479+6.2721685e-17j)
(-0.16052534+5.2205873e-17j)
(0.0121225165+4.1653206e-17j)
(0.17804898+3.1474176e-17j)
(0.33136162+2.203221e-17j)
(0.4673134+1.3625504e-17j)
(0.58250695+6.4735324e-18j)
(0.67499965+7.091496e-19j)
(0.74430573-3.623343e-18j)
(0.79129684-6.564084e-18j)
(0.81801623-8.227987e-18j)
(0.82765496-8.790381e-18j)
(0.8234445-8.469202e-18j)
(0.80915076-7.5052355e-18j)
(0.78853494-6.142046e-18j)
(0.7650765-4.6072264e-18j)
(0.7417437-3.0964452e-18j)
(0.72082925-1.7615307e-18j)
(0.70385855-7.034112e-19j)
(0.6915763+2.96976e-20j)
(0.68400633+4.389505e-19j)
(0.6805757+5.6695745e-19j)
(0.68028617+4.8627865e-19j)
(0.681916+2.8564976e-19j)
(0.6842264+5.545444e-20j)
(0.68615484-1.2599368e-19j)
(0.6961727-7.672174e-19j)
(0.69505686-6.710836e-19j)
(0.6917251-4.0371162e-19j)
(0.68699604-2.5416811e-20j)
(0.6821486+3.7223931e-19j)
(0.6787472+6.7891836e-19j)
(0.6784182+7.8112247e-19j)
(0.68260044+5.793115e-19j)
(0.6922942+4.705523e-21j)
(0.70783824-9.660625e-19j)
(0.72873867-2.3001182e-18j)
(0.7535703-3.90268e-18j)
(0.7799674-5.6174394e-18j)
(0.8047101-7.2333206e-18j)
(0.8239041-8.497338e-18j)
(0.83324593-9.13272e-18j)
(0.8283527-8.860909e-18j)
(0.80536777-7.425681e-18j)
(0.7605388-4.6173387e-18j)
(0.6913969-2.948895e-19j)
(0.5968413+5.5958078e-18j)
(0.4773714+1.3009634e-17j)
(0.33520594+2.1796811e-17j)
(0.17427501+3.1705264e-17j)
(7.684725e-05+4.2390793e-17j)
(-0.18059115+5.3434547e-17j)
(-0.360013+6.43667e-17j)
(-0.53001934+7.469453e-17j)
(-0.6825019+8.3932984e-17j)
(-0.80994105+9.163555e-17j)
(-0.905904+9.7422864e-17j)
(-0.96547604+1.01007236e-16j)
(-0.9763919+1.01647825e-16j)
(-0.95657414+1.0046215e-16j)
(-0.8984052+9.69637e-17j)
(-0.80486095+9.1324485e-17j)
(-0.6806395+8.3818946e-17j)
(-0.5318478+7.480649e-17j)
(-0.36560115+6.470888e-17j)
(-0.18956701+5.3984166e-17j)
(-0.011487566+4.309891e-17j)
(0.16128403+3.2500734e-17j)
(0.32220098+2.2593138e-17j)
(0.46586522+1.3714181e-17j)
(0.58827376+6.120415e-18j)
(0.68695617-2.297492e-20j)
(0.76099837-4.6454753e-18j)
(0.8109587-7.768019e-18j)
(0.838689-9.4938315e-18j)
(0.84731674-9.994317e-18j)
(0.8401371-9.491334e-18j)
(0.82110727-8.23736e-18j)
(0.7943018-6.495164e-18j)
(0.76362836-4.51855e-18j)
(0.7325831-2.5355172e-18j)
(0.70406425-7.3497314e-19j)
(0.6802485+7.4229063e-19j)
(0.6625346+1.8079858e-18j)
(0.6515531+2.426137e-18j)
(0.64723104+2.6087287e-18j)
(0.6489034+2.407922e-18j)
(0.6554569+1.9058006e-18j)
(0.6654897+1.2027469e-18j)
(0.6774739+4.055615e-19j)
(0.68990785-3.836087e-19j)
(0.7016802-1.0766452e-18j)
(0.71136737-1.6064585e-18j)
(0.71812016-1.9312173e-18j)
(0.7214729-2.0356826e-18j)
(0.72135097-1.9298105e-18j)
(0.71804005-1.6450146e-18j)
(0.71212703-1.2286744e-18j)
(0.7044167-7.375851e-19j)
(0.69583523-2.3108934e-19j)
(0.68733054+2.3539924e-19j)
(0.67977685+6.158703e-19j)
(0.6738934+8.77725e-19j)
(0.6701838+1.0040391e-18j)
(0.6688988+9.939959e-19j)
(0.6700263+8.615969e-19j)
(0.66410655+1.1962635e-18j)
(0.6696045+8.874289e-19j)
(0.67717373+4.8730265e-19j)
(0.6859416+3.9151922e-20j)
(0.6949328-4.1056758e-19j)
(0.70316935-8.1650776e-19j)
(0.709768-1.1384989e-18j)
(0.7140281-1.3450821e-18j)
(0.7154998-1.4162334e-18j)
(0.7140281-1.3450821e-18j)
(0.70976806-1.1384989e-18j)
(0.70316935-8.1650776e-19j)
(0.6949328-4.1056758e-19j)
(0.6859416+3.9151922e-20j)
(0.67717373+4.8730265e-19j)
(0.6696044+8.874289e-19j)
(0.66410655+1.1962635e-18j)
(0.6611243+1.4066868e-18j)
(0.6614001+1.4531618e-18j)
(0.66510373+1.3151056e-18j)
(0.672031+9.917643e-19j)
(0.6816053+5.0390943e-19j)
(0.6929187-1.0677278e-19j)
(0.7048111-7.8070325e-19j)
(0.71598107-1.4457017e-18j)
(0.72511804-2.0241426e-18j)
(0.73104507-2.4413417e-18j)
(0.7328571-2.6343573e-18j)
(0.73004043-2.5602896e-18j)
(0.7225608-2.2031319e-18j)
(0.71090794-1.5783218e-18j)
(0.6960894-7.343061e-19j)
(0.67037135+8.126548e-19j)
(0.65450096+1.8122483e-18j)
(0.6417577+2.6559086e-18j)
(0.6339796+3.2209063e-18j)
(0.6327067+3.399686e-18j)
(0.6390015+3.1126383e-18j)
(0.6532968+2.3193644e-18j)
(0.6752845+1.0272825e-18j)
(0.70385855-7.034112e-19j)
(0.73712105-2.7591157e-18j)
(0.7724532-4.976859e-18j)
(0.8066506-7.152907e-18j)
(0.83611447-9.055454e-18j)
(0.85708714-1.0440492e-17j)
(0.8659132-1.1069656e-17j)
(0.85930884-1.07286235e-17j)
(0.8254174-8.681176e-18j)
(0.78136235-5.9557707e-18j)
(0.7176241-1.9895667e-18j)
(0.6343548+3.1979315e-18j)
(0.53275275+9.520101e-18j)
(0.41503197+1.6826819e-17j)
(0.28432292+2.4912505e-17j)
(0.1445072+3.3528016e-17j)
(8.889661e-09+4.2395498e-17j)
(-0.14450723+5.1225042e-17j)
(-0.28432292+5.973201e-17j)
(-0.41503197+6.765358e-17j)
(-0.53275275+7.476349e-17j)
(-0.6343548+8.088399e-17j)
(-0.71762407+8.5894044e-17j)
(-0.7813624+8.9733526e-17j)
(-0.82541734+9.240331e-17j)
(-0.8504069+9.396129e-17j)
(-0.8584145+9.451497e-17j)
(-0.85200703+9.4211345e-17j)
(-0.8342521+9.322501e-17j)
(-0.808479+9.174526e-17j)
(-0.77804124+8.9963555e-17j)
(-0.7460969+8.8061794e-17j)
(-0.7154229+8.620252e-17j)
(-0.6882754+8.452124e-17j)
(-0.66630185+8.312148e-17j)
(-0.6505077+8.2072305e-17j)
(-0.6412742+8.1408515e-17j)
(-0.6384203+8.113293e-17j)
(-0.6412982+8.1220434e-17j)
(-0.64891016+8.1623165e-17j)
(-0.6692351+8.28399e-17j)
(-0.6820184+8.365047e-17j)
(-0.6946747+8.44888e-17j)
(-0.70616364+8.528101e-17j)
(-0.715706+8.5966155e-17j)
(-0.7227991+8.6498885e-17j)
(-0.72720075+8.6850464e-17j)
(-0.728892+8.700829e-17j)
(-0.72802675+8.697428e-17j)
(-0.7248769+8.676244e-17j)
(-0.7197838+8.63963e-17j)
(-0.71312153+8.59063e-17j)
(-0.7052762+8.532751e-17j)
(-0.6966429+8.4698034e-17j)
(-0.68763554+8.4057776e-17j)
(-0.67870724+8.3447714e-17j)
(-0.67037135+8.290948e-17j)
(-0.6629811+8.248477e-17j)
(-0.6575314+8.221442e-17j)
(-0.6548175+8.213697e-17j)
(-0.65560853+8.228624e-17j)
(-0.66056556+8.268818e-17j)
(-0.6701461+8.335688e-17j)
(-0.68450147+8.429016e-17j)
(-0.70337725+8.5464936e-17j)
(-0.7260311+8.683312e-17j)
(-0.7511762+8.831853e-17j)
(-0.7769628+8.9815456e-17j)
(-0.8010069+9.1189324e-17j)
(-0.8204679+9.228013e-17j)
(-0.8321789+9.29085e-17j)
(-0.83282405+9.288464e-17j)
(-0.8191526+9.2019694e-17j)
(-0.7879857+9.013909e-17j)
(-0.7372665+8.709679e-17j)
(-0.6654789+8.2789794e-17j)
(-0.57207704+7.717141e-17j)
(-0.45763576+7.026231e-17j)
(-0.32394472+6.2158156e-17j)
(-0.17403387+5.3033034e-17j)
(-0.012122535+4.3137787e-17j)
(0.15651023+3.2793043e-17j)
(0.32573104+2.2376986e-17j)
(0.48882544+1.2308269e-17j)
(0.6388268+3.0249366e-18j)
(0.76888114-5.0394283e-18j)
(0.87262934-1.14809005e-17j)
(0.94458205-1.5950089e-17j)
(0.98966354-1.8738349e-17j)
(0.98617023-1.8496642e-17j)
(0.9417795-1.5715131e-17j)
(0.85746235-1.0463467e-17j)
(0.7361605-2.9350395e-18j)
(0.58268106+6.561274e-18j)
(0.4034792+1.761628e-17j)
(0.20634383+2.9741616e-17j)
(-8.889661e-09+4.2395495e-17j)
(-0.20634381+5.5011445e-17j)
(-0.40347922+6.702824e-17j)
(-0.582681+7.791912e-17j)
(-0.7361605+8.721863e-17j)
(-0.85746235+9.454539e-17j)
(-0.9417796+9.961961e-17j)
(-0.98617035+1.022744e-16j)
(-0.9804635+1.0189714e-16j)
(-0.94458205+9.9727846e-17j)
(-0.8726292+9.538538e-17j)
(-0.76888114+8.9121346e-17j)
(-0.63882685+8.1258657e-17j)
(-0.4888255+7.217213e-17j)
(-0.32573104+6.226753e-17j)
(-0.15651022+5.1960022e-17j)
(0.012122532+4.1653206e-17j)
(0.17403388+3.1720027e-17j)
(0.32394472+2.2486366e-17j)
(0.45763576+1.4218092e-17j)
(0.57207704+7.112179e-18j)
(0.6654789+1.2921307e-18j)
(0.7372664-3.1923131e-18j)
(0.7879856-6.3613324e-18j)
(0.81915253-8.297568e-18j)
(0.83282393-9.106888e-18j)
(0.8321789-9.004032e-18j)
(0.8204679-8.198208e-18j)
(0.8010069-6.9057314e-18j)
(0.7769629-5.3350577e-18j)
(0.7511761-3.6740166e-18j)
(0.7260311-2.0800553e-18j)
(0.70337725-6.7394277e-19j)
(0.68450147+4.6290376e-19j)
(0.67014617+1.2876381e-18j)
(0.6605656+1.792221e-18j)
(0.65560853+1.9973544e-18j)
(0.6548175+1.9449527e-18j)
(0.6575314+1.6900496e-18j)
(0.6629811+1.2929904e-18j)
(0.67957145+2.4931337e-19j)
(0.6876092-2.1504822e-19j)
(0.6951342-6.1246257e-19j)
(0.701723-9.271783e-19j)
(0.70713854-1.1579576e-18j)
(0.71129304-1.3139402e-18j)
(0.7141957-1.4096154e-18j)
(0.715901-1.4597638e-18j)
(0.7164624-1.4751702e-18j)
(0.715901-1.4597638e-18j)
(0.7141957-1.4096154e-18j)
(0.7112931-1.3139402e-18j)
(0.7071386-1.1579576e-18j)
(0.701723-9.271783e-19j)
(0.6951343-6.1246257e-19j)
(0.68760926-2.1504822e-19j)
(0.67037135+8.126548e-19j)
(0.6629811+1.2929904e-18j)
(0.6575314+1.6900496e-18j)
(0.6548175+1.9449525e-18j)
(0.65560853+1.9973544e-18j)
(0.66056556+1.7922212e-18j)
(0.6701461+1.287638e-18j)
(0.68450147+4.6290376e-19j)
(0.70337725-6.7394277e-19j)
(0.7260311-2.0800553e-18j)
(0.7511762-3.674016e-18j)
(0.7769628-5.3350577e-18j)
(0.8010069-6.9057322e-18j)
(0.8204679-8.198208e-18j)
(0.8321789-9.004032e-18j)
(0.83282405-9.106888e-18j)
(0.8191526-8.297568e-18j)
(0.7879857-6.361333e-18j)
(0.7372665-3.1923131e-18j)
(0.6654789+1.2921307e-18j)
(0.57207704+7.112179e-18j)
(0.45763576+1.4218092e-17j)
(0.32394472+2.2486366e-17j)
(0.17403387+3.1720027e-17j)
(0.012122535+4.1653206e-17j)
(-0.15651023+5.196002e-17j)
(-0.32573104+6.226753e-17j)
(-0.48882544+7.217213e-17j)
(-0.6388268+8.1258657e-17j)
(-0.76888114+8.9121346e-17j)
(-0.87262934+9.5385366e-17j)
(-0.94458205+9.9727846e-17j)
(-0.9850635+1.0189714e-16j)
(-0.98171926+1.0172931e-16j)
(-0.9380301+9.916044e-17j)
(-0.8549223+9.4234315e-17j)
(-0.7352294+8.7104593e-17j)
(-0.5835953+7.8031084e-17j)
(-0.40627325+6.737041e-17j)
(-0.21083176+5.556106e-17j)
(-0.0057822024+4.3103614e-17j)
(0.19984832+3.0537086e-17j)
(0.3969767+1.8412607e-17j)
(0.57692796+7.26582e-18j)
(0.7318768-2.410432e-18j)
(0.855242-1.0191552e-17j)
(0.9420093-1.5743269e-17j)
(0.98896575-1.8838982e-17j)
(0.99023175-1.9371271e-17j)
(0.95606846-1.7356775e-17j)
(0.8844952-1.2934064e-17j)
(0.77961975-6.354534e-18j)
(0.6469252+2.0331725e-18j)
(0.49294025+1.18043595e-17j)
(0.32485917+2.2483758e-17j)
(0.1501353+3.3573746e-17j)
(-0.023927582+4.458349e-17j)
(-0.19056226+5.5057178e-17j)
(-0.34387976+6.45995e-17j)
(-0.47914693+7.289667e-17j)
(-0.5929834+7.97317e-17j)
(-0.6834688+8.499292e-17j)
(-0.7501544+8.8675105e-17j)
(-0.7939817+9.08734e-17j)
(-0.8217168+9.177038e-17j)
(-0.82692784+9.1617486e-17j)
(-0.81799054+9.0711756e-17j)
(-0.79924726+8.937029e-17j)
(-0.77510875+8.7903676e-17j)
(-0.7497178+8.6590855e-17j)
(-0.726649+8.5657e-17j)
(-0.70866686+8.525622e-17j)
(-0.6975566+8.546023e-17j)
(-0.6940404+8.625381e-17j)
(-0.6977803+8.753741e-17j)
(-0.7074674+8.913654e-17j)
(-0.7209844+9.0817086e-17j)
(-0.7356299+9.230555e-17j)
(-0.7483815+9.331222e-17j)
(-0.7561778+9.355573e-17j)
(-0.760795+9.278692e-17j)
(-0.75031275+9.081017e-17j)
(-0.7276135+8.75005e-17j)
(-0.69200706+8.2815205e-17j)
(-0.6437354+7.6799174e-17j)
(-0.58394957+6.958339e-17j)
(-0.51461405+6.1377026e-17j)
(-0.43835002+5.2453726e-17j)
(-0.35823116+4.313308e-17j)
(-0.277551+3.3759104e-17j)
(-0.19958167+2.4677106e-17j)
(-0.12734348+1.6210948e-17j)
(-0.06340318+8.6423764e-18j)
(-0.009715888+2.1938923e-18j)
(0.032479223-2.9835623e-18j)
(0.062703505-6.8173683e-18j)
(0.08582362-9.87744e-18j)
(0.093196675-1.1070962e-17j)
(0.09085011-1.1097793e-17j)
(0.08081238-1.0168578e-17j)
(0.06537591-8.530847e-18j)
(0.046901796-6.4483605e-18j)
(0.02763413-4.180532e-18j)
(0.009538908-1.9636476e-18j)
(-0.005820635+4.705523e-21j)
(-0.017364275+1.5768965e-18j)
(-0.02452714+2.6615363e-18j)
(-0.027245078+3.224599e-18j)
(-0.02589814+3.2856468e-18j)
(-0.021220593+2.9098396e-18j)
(-0.01418839+2.1967427e-18j)
(-0.005896136+1.2671584e-18j)
(-0.002035798+2.4931337e-19j)
(0.0059960643-7.343061e-19j)
(0.012887976-1.5783218e-18j)
(0.017989937-2.2031319e-18j)
(0.02090635-2.5602896e-18j)
(0.021511158-2.6343573e-18j)
(0.019935066-2.4413417e-18j)
(0.016528377-2.0241426e-18j)
(0.011805051-1.4457017e-18j)
(0.006374926-7.8070325e-19j)
(0.00087186584-1.0677278e-19j)
(-0.0041147326+5.0390943e-19j)
(-0.008098369+9.917643e-19j)
(-0.010738651+1.3151056e-18j)
(-0.011865967+1.4531618e-18j)
(-0.01148647+1.4066868e-18j)
(-0.0051682005+6.3292205e-19j)
(-0.0027954099+3.4233898e-19j)
(-0.00022975319+2.8136652e-20j)
(0.0022203508-2.7191456e-19j)
(0.0042837407-5.24607e-19j)
(0.0057530617-7.045469e-19j)
(0.0065025026-7.9632693e-19j)
(0.00649549-7.954682e-19j)
(0.005782211-7.081167e-19j)
(0.004487938-5.496139e-19j)
(0.0027940464-3.4217202e-19j)
(0.0009142297-1.1196086e-19j)
(-0.0009312022+1.1403938e-19j)
(-0.0025400505+3.110665e-19j)
(-0.0037493748+4.5916605e-19j)
(-0.0044509973+5.4508995e-19j)
